<?xml version="1.0" encoding="iso-8859-1"?>
<!-- Generator: Adobe Illustrator 18.1.1, SVG Export Plug-In . SVG Version: 6.00 Build 0)  -->
<svg version="1.1"  xmlns="http://www.w3.org/2000/svg" xmlns:xlink="http://www.w3.org/1999/xlink" x="0px" y="0px"
	 viewBox="0 0 26.364 25.87" style="enable-background:new 0 0 26.364 25.87;" xml:space="preserve">
<polygon style="fill:#fff;fill-rule:evenodd;clip-rule:evenodd;" points="13.434,0 12.02,1.414 22.504,11.899 0,11.899 0,13.899 
	22.567,13.899 12.01,24.455 13.424,25.87 26.364,12.93 "/>
</svg>
