<?xml version="1.0" encoding="iso-8859-1"?>
<!-- Generator: Adobe Illustrator 18.1.1, SVG Export Plug-In . SVG Version: 6.00 Build 0)  -->
<svg version="1.1"  xmlns="http://www.w3.org/2000/svg" xmlns:xlink="http://www.w3.org/1999/xlink" x="0px" y="0px"
	 viewBox="-410.005 290.248 12.012 16.064" style="enable-background:new -410.005 290.248 12.012 16.064;" xml:space="preserve">
<path style="fill:#9F9FA1;" d="M-399.017,296.22l-0.938,0.938l-0.707-0.707l0.938-0.938c0.975-0.975,0.975-2.561,0-3.535
	s-2.561-0.975-3.535,0l-2.987,2.988c-0.975,0.975-0.975,2.561,0,3.535s2.561,0.975,3.535,0l0.707,0.707
	c-0.683,0.683-1.578,1.023-2.475,1.023s-1.792-0.341-2.474-1.023c-1.364-1.364-1.364-3.585,0-4.949l2.987-2.987
	c1.365-1.365,3.584-1.365,4.949,0C-397.652,292.635-397.652,294.856-399.017,296.22z M-405.958,297.314l-0.13,0.129l0.705,0.709
	l0.131-0.13c0.975-0.975,2.561-0.975,3.535,0s0.975,2.561,0,3.535l-3.023,3.025c-0.975,0.975-2.561,0.975-3.535,0
	c-0.974-0.975-0.975-2.561,0-3.535l1.058-1.059l-0.707-0.707l-1.058,1.059c-1.364,1.364-1.364,3.585,0,4.949
	c0.683,0.683,1.578,1.023,2.475,1.023c0.897,0,1.792-0.341,2.475-1.023l3.023-3.024c1.364-1.364,1.364-3.585,0-4.949
	C-402.375,295.949-404.595,295.952-405.958,297.314z"/>
</svg>
