<?xml version="1.0" encoding="iso-8859-1"?>
<!-- Generator: Adobe Illustrator 18.1.1, SVG Export Plug-In . SVG Version: 6.00 Build 0)  -->
<svg version="1.1"  xmlns="http://www.w3.org/2000/svg" xmlns:xlink="http://www.w3.org/1999/xlink" x="0px" y="0px"
	 viewBox="0 0 25.348 14.873" style="enable-background:new 0 0 25.348 14.873;" xml:space="preserve">
<g>
	<path style="fill-rule:evenodd;clip-rule:evenodd;" d="M12.402,14.81h1.515c0,0,0.457-0.052,0.691-0.311
		c0.215-0.238,0.208-0.684,0.208-0.684s-0.03-2.091,0.914-2.399c0.93-0.303,2.125,2.021,3.391,2.914
		c0.957,0.676,1.685,0.529,1.685,0.529l3.385-0.049c0,0,1.771-0.112,0.931-1.544c-0.069-0.117-0.489-1.059-2.517-2.995
		c-2.123-2.026-1.838-1.698,0.719-5.203c1.557-2.135,2.18-3.438,1.985-3.996c-0.185-0.532-1.331-0.391-1.331-0.391l-3.811,0.024
		c0,0-0.283-0.039-0.492,0.089c-0.205,0.126-0.336,0.42-0.336,0.42s-0.604,1.652-1.408,3.057c-1.697,2.964-2.376,3.121-2.653,2.936
		c-0.646-0.429-0.484-1.723-0.484-2.642c0-2.872,0.424-4.07-0.825-4.38c-0.414-0.103-0.719-0.171-1.779-0.182
		c-1.36-0.014-2.511,0.004-3.163,0.333C8.593,0.554,8.258,1.041,8.462,1.069C8.714,1.103,9.285,1.227,9.587,1.65
		c0.391,0.547,0.377,1.774,0.377,1.774s0.224,3.381-0.524,3.801c-0.514,0.288-1.218-0.3-2.732-2.989c-0.775-1.378-1.36-2.9-1.36-2.9
		S5.235,1.052,5.034,0.9C4.789,0.715,4.448,0.656,4.448,0.656L0.826,0.681c0,0-0.544,0.016-0.743,0.259
		c-0.178,0.216-0.014,0.664-0.014,0.664s2.835,6.823,6.046,10.261C9.059,15.017,12.402,14.81,12.402,14.81L12.402,14.81z"/>
</g>
</svg>
